// Jest Snapshot v1, https://goo.gl/fbAQLP

exports[`SolarPanelList matches snapshot 1`] = `
<div>
  <div
    class="css-9hxfyh"
    data-testid="solar-panel-list"
  >
    <div
      class="css-y06klt"
      data-testid="solar-panel"
    >
      <div
        class="css-rsyci2"
      >
        sp-1
      </div>
      <div
        class="css-rsyci2"
        data-testid="solar-panel-voltage"
      >
        244
         v
      </div>
      <div
        class="css-rsyci2"
        data-testid="solar-panel-wattage"
      >
        73
         w
      </div>
    </div>
    <div
      class="css-y06klt"
      data-testid="solar-panel"
    >
      <div
        class="css-rsyci2"
      >
        sp-2
      </div>
      <div
        class="css-rsyci2"
        data-testid="solar-panel-voltage"
      >
        214
         v
      </div>
      <div
        class="css-rsyci2"
        data-testid="solar-panel-wattage"
      >
        30
         w
      </div>
    </div>
  </div>
</div>
`;
